﻿# Root = Winning combat side
# scope:wipe - Was this a wipe?
on_combat_end_winner = {
	events = {
		combat_event.0001 # Victorious commander gains progress towards earning "The Undefeated" nickname (obtained after winning 100 victories without a loss).
		combat_event.1001 # Winner imprisons commanders/knights on the losing side.
		combat_event.2001 # # Commander may become known as a Gajapati if you have the prerequisites
		fp1_shieldmaiden.0031 # Track shieldmaiden levelling.
		historical_artifacts.0100 # #Save a memorable battle as potential topic for artifacts
	}
	random_events = {
		98 = 0
		2 = artifact.6000 # Chance to loot an enemy banner after winning a battle
	}
	effect = {
		if = {
			limit = {
				exists = side_commander
				exists = enemy_side.side_commander
			}
			random = {
				chance = {
					value = 10
					if = {
						limit = {
							exists = scope:wipe
						}
						add = 90
					}
					if = {
						limit = {
							exists = enemy_side.side_commander.primary_title
							exists = side_commander.primary_title
							enemy_side.side_commander.primary_title.tier >= side_commander.primary_title.tier
						}
						add = 90
					}
				}
				combat.location = {
						save_scope_as = battle_province
				}
				side_commander = {
					create_character_memory = {
						type = battle_won_memory
								
						participants = {
							loser = root.enemy_side.side_commander
							ruler = root.enemy_side.side_primary_participant
						}

					}
					
					scope:new_memory = {
						save_scope_as = battle_memory
					}
					
					scope:battle_memory = {
						set_variable = {
							name = battle_location
							value = scope:battle_province
						}
					}
				}
			}
		}


		# setup for artifact.4010
		if = {
			limit = {
				exists = side_commander
				side_commander = {
					any_character_artifact = {
						is_equipped = yes
						artifact_slot_type = primary_armament
						NOT = { has_variable = artifact_battles_won_var }
					}
				}
			}
			side_commander = {
				random_character_artifact = {
					limit = {
						is_equipped = yes
						artifact_slot_type = primary_armament
						NOT = { has_variable = artifact_battles_won_var }
					}
					set_variable = {
						name = artifact_battles_won_var
						value = 1
					}
				}
			}
		}
		else_if = {
			limit = {
				exists = side_commander
				side_commander = {
					any_character_artifact = {
						is_equipped = yes
						artifact_slot_type = primary_armament
						has_variable = artifact_battles_won_var
					}
				}
			}
			side_commander = {
				random_character_artifact = {
					limit = {
						is_equipped = yes
						artifact_slot_type = primary_armament
						has_variable = artifact_battles_won_var
					}
					change_variable = {
						name = artifact_battles_won_var
						add = 1
					}
				}
			}
		}
		if = {
			limit = {
				any_side_knight = {
					any_character_artifact = {
						is_equipped = yes
						artifact_slot_type = primary_armament
						NOT = { has_variable = artifact_battles_won_var }
					}
				}
			}
			every_side_knight = {
				random_character_artifact = {
					limit = {
						is_equipped = yes
						artifact_slot_type = primary_armament
						NOT = { has_variable = artifact_battles_won_var }
					}
					set_variable = {
						name = artifact_battles_won_var
						value = 1
					}
				}
			}
		}
		else_if = {
			limit = {
				any_side_knight = {
					any_character_artifact = {
						is_equipped = yes
						artifact_slot_type = primary_armament
						has_variable = artifact_battles_won_var
					}
				}
			}
			every_side_knight = {
				random_character_artifact = {
					limit = {
						is_equipped = yes
						artifact_slot_type = primary_armament
						has_variable = artifact_battles_won_var
					}
					change_variable = {
						name = artifact_battles_won_var
						add = 1
					}
				}
			}
		}
		#setup for artifact.4020
		if = {
			limit = {
				exists = side_commander
				side_commander = {
					any_character_artifact = {
						is_equipped = yes
						artifact_slot_type = armor
						NOT = { has_variable = artifact_battles_won_var }
					}
				}
			}
			side_commander = {
				random_character_artifact = {
					limit = {
						is_equipped = yes
						artifact_slot_type = armor
						NOT = { has_variable = artifact_battles_won_var }
					}
					set_variable = {
						name = artifact_battles_won_var
						value = 1
					}
				}
			}
		}
		else_if = {
			limit = {
				exists = side_commander
				side_commander = {
					any_character_artifact = {
						is_equipped = yes
						artifact_slot_type = armor
						has_variable = artifact_battles_won_var
					}
				}
			}
			side_commander = {
				random_character_artifact = {
					limit = {
						is_equipped = yes
						artifact_slot_type = armor
						has_variable = artifact_battles_won_var
					}
					change_variable = {
						name = artifact_battles_won_var
						add = 1
					}
				}
			}
		}
		if = {
			limit = {
				any_side_knight = {
					any_character_artifact = {
						is_equipped = yes
						artifact_slot_type = armor
						NOT = { has_variable = artifact_battles_won_var }
					}
				}
			}
			every_side_knight = {
				random_character_artifact = {
					limit = {
						is_equipped = yes
						artifact_slot_type = armor
						NOT = { has_variable = artifact_battles_won_var }
					}
					set_variable = {
						name = artifact_battles_won_var
						value = 1
					}
				}
			}
		}
		else_if = {
			limit = {
				any_side_knight = {
					any_character_artifact = {
						is_equipped = yes
						artifact_slot_type = armor
						has_variable = artifact_battles_won_var
					}
				}
			}
			every_side_knight = {
				random_character_artifact = {
					limit = {
						is_equipped = yes
						artifact_slot_type = armor
						has_variable = artifact_battles_won_var
					}
					change_variable = {
						name = artifact_battles_won_var
						add = 1
					}
				}
			}
		}
	}
}

# Root = Losing combat side
# scope:wipe - Was this a wipe?
on_combat_end_loser = {
	events = {
		combat_event.0002 # Defeated commander loses shot at getting 'The Undefeated' nickname.
		# almohad.0003 # Check whether Ibn Tumert should die
		fp1_shieldmaiden.0031 # Track shieldmaiden levelling.
	}

	effect = {
		if = {
			limit = {
				exists = side_commander
				exists = enemy_side.side_commander
			}
			combat.location = {
					save_scope_as = battle_province
			}
			
			side_commander = {
				create_character_memory = {
					type = battle_lost_memory
						 	
					participants = {
						winner = root.enemy_side.side_commander
						ruler = root.enemy_side.side_primary_participant
					}
				}
				
				scope:new_memory = {
					save_scope_as = battle_memory
				}

				scope:battle_memory = {
					set_variable = {
						name = battle_location
						value = scope:battle_province
					}
				}
			}
		}
	}
}
