#k_avamezan
##d_avamezan
###c_erubas
632 = {		#Erubas

    # Misc
    culture = akalsesi
    religion = old_bulwari_sun_cult

    # History
}

###c_dazar_avamezan
633 = {		#Dazar Avamezan

    # Misc
    culture = akalsesi
    religion = old_bulwari_sun_cult

    # History
}

###c_kutiriq
630 = {		#Kutiriq

    # Misc
    culture = akalsesi
    religion = old_bulwari_sun_cult

    # History
}

###c_nerdu_avamezan
629 = {		#Nerdu Avamezan

    # Misc
    culture = akalsesi
    religion = old_bulwari_sun_cult

    # History
}