﻿

special_genes = {


	accessory_genes = {

	#####################################
	#									#
	# 		  	   PROPS  		        #
	#									#
	#####################################



		props = {
		
			no_props = {
				index = 0
				male = {
				}
				female = {
				}
				boy = {
				}
				girl = {
				}
			}

	        grid = {
	            index = 1
	            male = {
	                1 = debug_grid_01
	            }
	            female = male
	            boy = male
	            girl = male
	        }

			prison_shackles = {
				index = 2
				male = {
					1 = shackles_arrest_01
				}
				female = {
					1 = shackles_arrest_01
				}
				boy = {
					1 = shackles_arrest_01
				}
				girl = {
					1 = shackles_arrest_01
				}
			}

			prison_shackles_02 = {
				index = 3
				male = {
					1 = shackles_dungeon_01
				}
				female = {
					1 = shackles_dungeon_01
				}
				boy = {
					1 = shackles_dungeon_01
				}
				girl = {
					1 = shackles_dungeon_01
				}
			}

			spymaster_daggers = {
				index = 4
				male = {
					1 = western_dagger_01
				}
				female = {
					1 = western_dagger_01
				}
				boy = male
				girl = female
			}

			spymaster_daggers_mena = {
				index = 5
				male = {
					1 = mena_dagger_01
				}
				female = {
					1 = mena_dagger_01
				}
				boy = male
				girl = female
			}

			spymaster_daggers_indian = {
				index = 6
				male = {
					1 = indian_dagger_01
				}
				female = {
					1 = indian_dagger_01
				}
				boy = male
				girl = female
			}
			
			marshal_swords = {
				index = 7
				male = {
					1 = western_sword_02
				}
				female = {
					1 = western_sword_02			
				}
				boy = male
				girl = female
			}
			steward_pouches = {
				index = 8
				male = {
					1 = western_pouch_02
			
				}
				female = {
					1 = western_pouch_02
				
				}
				boy = male
				girl = female
			}
			chancellor_scrolls = {
				index = 9
				male = {
					1 = western_scroll_01
				}
				female = {
					1 = western_scroll_01
				}
				boy = male
				girl = female
			}
			swaddled_baby = {
				index = 10
				male = {
					1 = prop_swaddled_baby_01
				}
				female = {
					1 = prop_swaddled_baby_01
				}
				boy = male
				girl = female
			}

			prophet_shield = {
				index = 11
				male = {
					1 = prophet_shield
				}
				female = {
					1 = prophet_shield
				}
				boy = male
				girl = female
			}
			shackles_dungeon_01 = {
				index = 12
				male = {
					1 = shackles_dungeon_01
				}
				female = {
					1 = shackles_dungeon_01
				}
				boy = {
				}
				girl = {
				}
			}
			shackles_arrest_01 = {
				index = 13
				male = {
					1 = shackles_arrest_01
				}
				female = {
					1 = shackles_arrest_01
				}
				boy = {
				}
				girl = {
				}
			}
		
			fp1_marshal_sword = {
				index = 14
				male = {
					1 = fp1_marshal_sword_01
				}
				female = {
					1 = fp1_marshal_sword_01			
				}
				boy = male
				girl = female
			}

			fp1_spymasters_dagger = {
				index = 15
				male = {
					1 = fp1_spymasters_dagger_01
				}
				female = {
					1 = fp1_spymasters_dagger_01			
				}
				boy = male
				girl = female
			}

			fp1_rune_tablet_01 = {
				index = 16
				male = {
					1 = fp1_rune_tablet_01
				}
				female = {
					1 = fp1_rune_tablet_01		
				}
				boy = male
				girl = female
			}

			messenger_scroll = {
				index = 17
				male = {
					1 = rolled_scroll_01
				}
				female = {
					1 = rolled_scroll_01		
				}
				boy = male
				girl = female
			}

			ep1_artisan_spear_left_hand = {
				index = 18
				male = {
					1 = ep1_spear_01_left_hand
				}
				female = {
					1 = ep1_spear_01_left_hand		
				}
				boy = male
				girl = female
			}

			ep1_artisan_spear_right_hand = {
				index = 19
				male = {
					1 = ep1_spear_01_right_hand
				}
				female = {
					1 = ep1_spear_01_right_hand		
				}
				boy = male
				girl = female
			}

			ep1_mena_artisan_spear_left_hand = {
				index = 20
				male = {
					1 = ep1_mena_spear_01_left_hand
				}
				female = {
					1 = ep1_mena_spear_01_left_hand		
				}
				boy = male
				girl = female
			}

			ep1_mena_artisan_spear_right_hand = {
				index = 21
				male = {
					1 = ep1_mena_spear_01_right_hand
				}
				female = {
					1 = ep1_mena_spear_01_right_hand		
				}
				boy = male
				girl = female
			}

			ep1_african_artisan_spear_left_hand = {
				index = 22
				male = {
					1 = ep1_african_spear_01_left_hand
				}
				female = {
					1 = ep1_african_spear_01_left_hand		
				}
				boy = male
				girl = female
			}

			ep1_african_artisan_spear_right_hand = {
				index = 23
				male = {
					1 = ep1_african_spear_01_right_hand
				}
				female = {
					1 = ep1_african_spear_01_right_hand		
				}
				boy = male
				girl = female
			}

			ep1_indian_artisan_spear_left_hand = {
				index = 24
				male = {
					1 = ep1_indian_spear_01_left_hand
				}
				female = {
					1 = ep1_indian_spear_01_left_hand		
				}
				boy = male
				girl = female
			}

			ep1_indian_artisan_spear_right_hand = {
				index = 25
				male = {
					1 = ep1_indian_spear_01_right_hand
				}
				female = {
					1 = ep1_indian_spear_01_right_hand		
				}
				boy = male
				girl = female
			}

			ep1_artisan_sword_mena = {
				index = 26
				male = {
					1 = ep1_sword_mena_01
				}
				female = {
					1 = ep1_sword_mena_01		
				}
				boy = male
				girl = female
			}

			ep1_artisan_sword_indian = {
				index = 27
				male = {
					1 = ep1_sword_indian_01
				}
				female = {
					1 = ep1_sword_indian_01		
				}
				boy = male
				girl = female
			}

			ep1_artisan_sword_byzantine = {
				index = 28
				male = {
					1 = ep1_sword_byzantine_01
				}
				female = {
					1 = ep1_sword_byzantine_01		
				}
				boy = male
				girl = female
			}

			ep1_artisan_sword_steppe = {
				index = 29
				male = {
					1 = ep1_sword_steppe_01
				}
				female = {
					1 = ep1_sword_steppe_01		
				}
				boy = male
				girl = female
			}
			ep1_artisan_sword_african = {
				index = 30
				male = {
					1 = ep1_sword_african_01
				}
				female = {
					1 = ep1_sword_african_01		
				}
				boy = male
				girl = female
			}
			ep1_artisan_sword_northern = {
				index = 31
				male = {
					1 = ep1_sword_northern_01
				}
				female = {
					1 = ep1_sword_northern_01		
				}
				boy = male
				girl = female
			}

			ep1_artisan_axe_mena = {
				index = 32
				male = {
					1 = ep1_axe_mena_01
				}
				female = {
					1 = ep1_axe_mena_01		
				}
				boy = male
				girl = female
			}	

			ep1_artisan_axe = {
				index = 33
				male = {
					1 = ep1_axe_01
				}
				female = {
					1 = ep1_axe_01		
				}
				boy = male
				girl = female
			}

			ep1_artisan_axe_northern_pagan = {
				index = 34
				male = {
					1 = ep1_axe_northern_pagan_01
				}
				female = {
					1 = ep1_axe_northern_pagan_01		
				}
				boy = male
				girl = female
			}

			ep1_artisan_axe_indian = {
				index = 35
				male = {
					1 = ep1_axe_indian_01
				}
				female = {
					1 = ep1_axe_indian_01		
				}
				boy = male
				girl = female
			}
			ep1_artisan_axe_african = {
				index = 36
				male = {
					1 = ep1_axe_african_01
				}
				female = {
					1 = ep1_axe_african_01		
				}
				boy = male
				girl = female
			}
			ep1_artisan_axe_steppe = {
				index = 37
				male = {
					1 = ep1_axe_steppe_01
				}
				female = {
					1 = ep1_axe_steppe_01		
				}
				boy = male
				girl = female
			}
			
			ep1_artisan_axe_mediterranean = {
				index = 38
				male = {
					1 = ep1_axe_mediterranean_01
				}
				female = {
					1 = ep1_axe_mediterranean_01		
				}
				boy = male
				girl = female
			}


			ep1_artisan_mace_african = {
				index = 39
				male = {
					1 = ep1_mace_african_01
				}
				female = {
					1 = ep1_mace_african_01		
				}
				boy = male
				girl = female
			}

			ep1_artisan_mace_western = {
				index = 40
				male = {
					1 = ep1_mace_western_01
				}
				female = {
					1 = ep1_mace_western_01		
				}
				boy = male
				girl = female
			}
			ep1_artisan_mace_steppe = {
				index = 41
				male = {
					1 = ep1_mace_steppe_01
				}
				female = {
					1 = ep1_mace_steppe_01	
				}
				boy = male
				girl = female
			}
			ep1_artisan_mace_byzantine = {
				index = 42
				male = {
					1 = ep1_mace_byzantine_01
				}
				female = {
					1 = ep1_mace_byzantine_01	
				}
				boy = male
				girl = female
			}

			# Genes for props with overrides for equipped artifacts
			ep1_artifact_axe_equipped = {
				index = 43
				male = {
					1 = ep1_artifact_axe_equipped_01
				}
				female = {
					1 = ep1_artifact_axe_equipped_01		
				}
				boy = male
				girl = female
			}

			ep1_artifact_mace_equipped = {
				index = 44
				male = {
					1 = ep1_artifact_mace_equipped_01
				}
				female = {
					1 = ep1_artifact_mace_equipped_01		
				}
				boy = male
				girl = female
			}

			ep1_artifact_sword_equipped = {
				index = 45
				male = {
					1 = ep1_artifact_sword_equipped_01
				}
				female = {
					1 = ep1_artifact_sword_equipped_01		
				}
				boy = male
				girl = female
			}

			ep1_artifact_dagger_equipped = {
				index = 46
				male = {
					1 = ep1_artifact_dagger_equipped_01
				}
				female = {
					1 = ep1_artifact_dagger_equipped_01		
				}
				boy = male
				girl = female
			}

			ep1_artifact_spear_equipped = {
				index = 47
				male = {
					1 = ep1_artifact_spear_equipped_01
				}
				female = {
					1 = ep1_artifact_spear_equipped_01		
				}
				boy = male
				girl = female
			}
			
			
			ep1_mena_book_big = {
				index = 48
				male = {
					1 = ep1_mena_book_big_01
				}
				female = {
					1 = ep1_mena_book_big_01		
				}
				boy = male
				girl = female
			}
			
			ep1_western_book_big = {
				index = 49
				male = {
					1 = ep1_western_book_big_01
				}
				female = {
					1 = ep1_western_book_big_01		
				}
				boy = male
				girl = female
			}
			
			ep1_tool_quill = {
				index = 50
				male = {
					1 = ep1_tool_quill_01
				}
				female = {
					1 = ep1_tool_quill_01		
				}
				boy = male
				girl = female
			}
			
			
			
			ep1_artifact_hammer_equipped = {
				index = 51
				male = {
					1 = ep1_artifact_hammer_equipped_01
				}
				female = {
					1 = ep1_artifact_hammer_equipped_01		
				}
				boy = male
				girl = female
			}


		
			fp2_iberian_muslim_dagger = {
				index = 52
				male = {
					1 = fp2_iberian_muslim_dagger_01
				}
				female = {
					1 = fp2_iberian_muslim_dagger_01		
				}
				boy = male
				girl = female
			}

			fp2_iberian_muslim_sword = {
				index = 53
				male = {
					1 = fp2_iberian_muslim_sword_01
				}
				female = {
					1 = fp2_iberian_muslim_sword_01	
				}
				boy = male
				girl = female
			}

			fp2_iberian_christian_sword = {
				index = 54
				male = {
					1 = fp2_iberian_christian_sword_01
				}
				female = {
					1 = fp2_iberian_christian_sword_01	
				}
				boy = male
				girl = female
			}

			fp2_iberian_muslim_scroll = {
				index = 55
				male = {
					1 = fp2_iberian_muslim_scroll_01
				}
				female = {
					1 = fp2_iberian_muslim_scroll_01		
				}
				boy = male
				girl = female
			}
			
			fp2_steward_pouch = {
				index = 56
				male = {
					1 = fp2_steward_pouch_01
				}
				female = {
					1 = fp2_steward_pouch_01		
				}
				boy = male
				girl = female
			}

			fp2_chess_piece_left_hand = {
				index = 57
				male = {
					1 = fp2_steward_chess_piece_01_left_hand
				}
				female = {
					1 = fp2_steward_chess_piece_01_left_hand		
				}
				boy = male
				girl = female
			}

			fp2_chess_piece_right_hand = {
				index = 58
				male = {
					1 = fp2_steward_chess_piece_01_right_hand
				}
				female = {
					1 = fp2_steward_chess_piece_01_right_hand		
				}
				boy = male
				girl = female
			}

			bp1_lantern = {
				index = 59
				male = {
					1 = bp1_lantern
				}
				female = {
					1 = bp1_lantern	
				}
				boy = male
				girl = female
			}

			bp1_tankard = {
				index = 60
				male = {
					1 = bp1_tankard
				}
				female = {
					1 = bp1_tankard
				}
				boy = male
				girl = female
			}

			bp1_goblet = {
				index = 61
				male = {
					1 = bp1_goblet
				}
				female = {
					1 = bp1_goblet
				}
				boy = male
				girl = female
			}
		}
		







		#####################################
		#									#
		# 		  	   LEGWEAR 		        #
		#									#
		#####################################


		
		legwear = {
			all_legwear = {
				index = 0
				male = {
					1 = male_legwear_secular_western_common_01
					1 = male_legwear_secular_fp1_common_01
				}
				female = {
					1 = female_legwear_secular_western_common_01
				}
				boy = male
				girl = female
			}

			no_legwear = {
				index = 1
				male = {
					1 = empty
				}
				female = {
					1 = empty
				}
				boy = male
				girl = female
			}

			western_common_legwear = {
				index = 2
				male = {
					1 = male_legwear_secular_western_common_01
				}
				female = {
					1 = female_legwear_secular_western_common_01
				}
				boy = male
				girl = female
			}

			western_war_legwear = {
				index = 3
				male = {
					1 = male_legwear_secular_western_war_01
				}
				female = {
					1 = female_legwear_secular_western_war_01
				}
				boy = male
				girl = female
			}

			mena_war_legwear = {
				index = 4
				male = {
					1 = male_legwear_secular_mena_war_nobility_01
				}
				female = {
					1 = female_legwear_secular_mena_war_nobility_01
				}
				boy = male
				girl = female
			}

			mena_common_legwear = {
				index = 5
				male = {
					1 = male_legwear_secular_mena_common_01
				}
				female = {
					1 = female_legwear_secular_mena_common_01
				}
				boy = male
				girl = female
			}

			mena_nobility_legwear = {
				index = 6
				male = {
					1 = male_legwear_secular_mena_nobility_01
				}
				female = {
					1 = female_legwear_secular_mena_nobility_01
				}
				boy = male
				girl = female
			}

			fp1_common_legwear = {
				index = 7
				male = {
					1 = male_legwear_secular_fp1_common_01
				}
				female = {
					1 = female_legwear_secular_fp1_common_01
				}
				boy = male
				girl = female
			}
			ep1_jester_legwear = {
				index = 8
				male = {
					1 = male_legwear_secular_ep1_jester_01
				}
				female = {
					1 = female_legwear_secular_ep1_jester_01
				}
				boy = male
				girl = female
			}
		}

		special_legwear = {

			special_wooden_leg = {
				index = 0
				male = {
					1 = male_legwear_special_wooden_leg_01
				}
				female = {
					1 = female_legwear_special_wooden_leg_01
				}
				boy = male
				girl = female
			}
		}




		#####################################
		#									#
		# 		  	   CLOAKS 		        #
		#									#
		#####################################


		cloaks = {
			no_cloak = {
				index = 0
				male = {
					1 = empty
				}
				female = {
					1 = empty
				}
			}

			western_royalty = {
				index = 1
				male = {
					1 = male_cloaks_secular_western_royalty_01
				}
				female = {
					1 = female_cloaks_secular_western_royalty_01
				}
			}
			fp1_cloak = {
				index = 2
				male = {
					1 = male_cloaks_secular_fp1_nobility_01
					1 = male_cloaks_secular_fp1_nobility_02
					1 = male_cloaks_secular_fp1_nobility_03
					1 = male_furs_secular_fp1_nobility_01
					1 = male_furs_secular_fp1_nobility_02
					1 = male_furs_secular_fp1_nobility_03
				}
				female = {
					1 = female_cloaks_secular_fp1_nobility_01
					1 = female_cloaks_secular_fp1_nobility_02
					1 = female_cloaks_secular_fp1_nobility_03
					1 = female_furs_secular_fp1_nobility_01
					1 = female_furs_secular_fp1_nobility_02
					1 = female_furs_secular_fp1_nobility_03
				}
			}
			fp1_cloak_berserker = {
				index = 3
				male = {
					1 = male_furs_secular_fp1_nobility_03
				}
				female = {
					1 = empty
				}
			}
			ep1_cloak_adventurer = {
				index = 4
				male = {
					1 = male_cloaks_secular_ep1_adventurer_01
				}
				female = {
					1 = empty
				}
			}

			all_cloaks = {
				index = 5
				male = {
					1 = male_cloaks_secular_western_royalty_01
					1 = male_cloaks_secular_fp1_nobility_01
					1 = male_cloaks_secular_fp1_nobility_02
					1 = male_cloaks_secular_fp1_nobility_03
					1 = male_furs_secular_fp1_nobility_01
					1 = male_furs_secular_fp1_nobility_02
					1 = male_furs_secular_fp1_nobility_03
					1 = male_furs_secular_fp1_nobility_03
					1 = male_furs_secular_fp1_nobility_03
					1 = male_cloaks_secular_ep1_adventurer_01
				}
				female = {
					1 = female_cloaks_secular_fp1_nobility_01
					1 = female_cloaks_secular_fp1_nobility_02
					1 = female_cloaks_secular_fp1_nobility_03
					1 = female_furs_secular_fp1_nobility_01
					1 = female_furs_secular_fp1_nobility_02
					1 = female_furs_secular_fp1_nobility_03
				}
			}

		}		

		#####################################
		#									#
		# 		   secondary prop		    #
		#									#
		#####################################


		props_2 = {
			ep1_mena_book_big = {
				index = 0
				male = {
				1 = ep1_mena_book_big_01
				}
				female = {
					1 = ep1_mena_book_big_01		
				}
				boy = male
				girl = female
			}

		}		
	}

}